{
    "name":"OIS Theme Settings Extender",
    "version":"1.0.0",
    "author":"Michael Rigsby <mrigsby@oistech.com>",
    "homepage":"https://gitlab.com/oistech/oisThemeSettings",
    "documentation":"https://gitlab.com/oistech/oisThemeSettings",
    "directory":"modules_app/contentbox-custom/_modules",
    "createPackageDirectory":true,
    "packageDirectory":"oisThemeSettings",
    "private":"false",
    "repository":{
        "type":"git",
        "URL":"https://gitlab.com/oistech/oisThemeSettings"
    },
    "slug":"oisThemeSettings",
    "shortDescription":"OIS Theme Settings extends the active theme settings form allowing the addition of Image Browsing, Link Browsing, Font Awesome Icon Selectors, and a basic JSON editor to the theme settings form",
    "type":"contentbox-modules",
    "dependencies":{},
    "scripts":{},
    "installPaths":{}
}